…
tidy_lyrics <- tidy_lyrics %>%
  anti_join(stop_words)
```

```
## Joining, by = "word"
```

```r
tidy_lyrics %>%
  count(word, sort = TRUE)
```

```
## # A tibble: 2,579 x 2
##    word      n
##    <chr> <int>
##  1 love    248
##  2 time    225
##  3 wanna   158
##  4 baby    153
##  5 ooh     127
##  6 yeah    105
##  7 stay    100
##  8 gonna    98
##  9 night    96
## 10 bad      80
## # ... with 2,569 more rows
```
…
