…
```r
plants %>%
  group_by(country) %>%
  summarise(percentage = n()/500) %>%
  arrange(desc(percentage))
```

```
## `summarise()` ungrouping output (override with `.groups` argument)
```

```
## # A tibble: 72 x 2
##    country       percentage
##    <chr>              <dbl>
##  1 Madagascar         0.196
##  2 United States      0.132
##  3 Ecuador            0.104
##  4 Tanzania           0.05 
##  5 Malaysia           0.036
##  6 Burundi            0.034
##  7 Guinea             0.028
##  8 Indonesia          0.024
##  9 New Caledonia      0.022
## 10 South Africa       0.022
## # ... with 62 more rows
```
…
